info face="Cayetano" size=16 bold=0 italic=0 charset="" unicode=0 stretchH=100 smooth=1 aa=1 padding=1,1,1,1 spacing=-2,-2
common lineHeight=23 base=18 scaleW=512 scaleH=512 pages=1 packed=0
page id=0 file="cayetano16.png"
chars count=97
char id=0       x=0    y=0    width=0    height=0    xoffset=-1   yoffset=0    xadvance=8    page=0    chnl=0 
char id=10      x=0    y=0    width=0    height=0    xoffset=-1   yoffset=0    xadvance=0    page=0    chnl=0 
char id=32      x=0    y=0    width=0    height=0    xoffset=-1   yoffset=0    xadvance=5    page=0    chnl=0 
char id=33      x=485  y=0    width=4    height=15   xoffset=0    yoffset=4    xadvance=3    page=0    chnl=0 
char id=34      x=327  y=18   width=7    height=5    xoffset=0    yoffset=4    xadvance=6    page=0    chnl=0 
char id=35      x=118  y=18   width=13   height=14   xoffset=0    yoffset=5    xadvance=13   page=0    chnl=0 
char id=36      x=95   y=18   width=11   height=14   xoffset=0    yoffset=5    xadvance=10   page=0    chnl=0 
char id=37      x=106  y=18   width=12   height=14   xoffset=0    yoffset=5    xadvance=10   page=0    chnl=0 
char id=38      x=85   y=18   width=10   height=15   xoffset=0    yoffset=4    xadvance=10   page=0    chnl=0 
char id=39      x=334  y=18   width=4    height=5    xoffset=0    yoffset=4    xadvance=3    page=0    chnl=0 
char id=40      x=500  y=0    width=8    height=15   xoffset=0    yoffset=4    xadvance=6    page=0    chnl=0 
char id=41      x=0    y=18   width=8    height=15   xoffset=0    yoffset=4    xadvance=6    page=0    chnl=0 
char id=42      x=283  y=18   width=9    height=10   xoffset=0    yoffset=3    xadvance=7    page=0    chnl=0 
char id=43      x=73   y=18   width=12   height=15   xoffset=-1   yoffset=4    xadvance=13   page=0    chnl=0 
char id=44      x=292  y=18   width=6    height=9    xoffset=-2   yoffset=15   xadvance=3    page=0    chnl=0 
char id=45      x=351  y=18   width=9    height=4    xoffset=-1   yoffset=10   xadvance=7    page=0    chnl=0 
char id=46      x=347  y=18   width=4    height=4    xoffset=0    yoffset=15   xadvance=3    page=0    chnl=0 
char id=47      x=38   y=18   width=12   height=15   xoffset=0    yoffset=4    xadvance=10   page=0    chnl=0 
char id=48      x=474  y=0    width=11   height=15   xoffset=0    yoffset=4    xadvance=10   page=0    chnl=0 
char id=49      x=383  y=0    width=6    height=15   xoffset=0    yoffset=4    xadvance=5    page=0    chnl=0 
char id=50      x=389  y=0    width=10   height=15   xoffset=0    yoffset=4    xadvance=10   page=0    chnl=0 
char id=51      x=399  y=0    width=10   height=15   xoffset=0    yoffset=4    xadvance=10   page=0    chnl=0 
char id=52      x=409  y=0    width=10   height=15   xoffset=0    yoffset=4    xadvance=10   page=0    chnl=0 
char id=53      x=419  y=0    width=11   height=15   xoffset=0    yoffset=4    xadvance=10   page=0    chnl=0 
char id=54      x=430  y=0    width=11   height=15   xoffset=0    yoffset=4    xadvance=10   page=0    chnl=0 
char id=55      x=441  y=0    width=11   height=15   xoffset=-1   yoffset=4    xadvance=10   page=0    chnl=0 
char id=56      x=452  y=0    width=11   height=15   xoffset=0    yoffset=4    xadvance=10   page=0    chnl=0 
char id=57      x=463  y=0    width=11   height=15   xoffset=0    yoffset=4    xadvance=10   page=0    chnl=0 
char id=58      x=298  y=18   width=4    height=9    xoffset=0    yoffset=10   xadvance=3    page=0    chnl=0 
char id=59      x=238  y=18   width=6    height=12   xoffset=-2   yoffset=12   xadvance=3    page=0    chnl=0 
char id=60      x=267  y=18   width=8    height=10   xoffset=0    yoffset=8    xadvance=6    page=0    chnl=0 
char id=61      x=302  y=18   width=11   height=7    xoffset=-1   yoffset=9    xadvance=10   page=0    chnl=0 
char id=62      x=275  y=18   width=8    height=10   xoffset=0    yoffset=8    xadvance=6    page=0    chnl=0 
char id=63      x=489  y=0    width=11   height=15   xoffset=-2   yoffset=4    xadvance=10   page=0    chnl=0 
char id=64      x=50   y=18   width=11   height=15   xoffset=0    yoffset=4    xadvance=10   page=0    chnl=0 
char id=65      x=40   y=0    width=10   height=15   xoffset=0    yoffset=4    xadvance=10   page=0    chnl=0 
char id=66      x=50   y=0    width=11   height=15   xoffset=0    yoffset=4    xadvance=10   page=0    chnl=0 
char id=67      x=61   y=0    width=11   height=15   xoffset=0    yoffset=4    xadvance=10   page=0    chnl=0 
char id=68      x=72   y=0    width=9    height=15   xoffset=0    yoffset=4    xadvance=10   page=0    chnl=0 
char id=69      x=81   y=0    width=11   height=15   xoffset=0    yoffset=4    xadvance=10   page=0    chnl=0 
char id=70      x=92   y=0    width=11   height=15   xoffset=0    yoffset=4    xadvance=10   page=0    chnl=0 
char id=71      x=103  y=0    width=11   height=15   xoffset=0    yoffset=4    xadvance=10   page=0    chnl=0 
char id=72      x=6    y=0    width=10   height=16   xoffset=0    yoffset=3    xadvance=10   page=0    chnl=0 
char id=73      x=114  y=0    width=4    height=15   xoffset=0    yoffset=4    xadvance=3    page=0    chnl=0 
char id=74      x=118  y=0    width=10   height=15   xoffset=0    yoffset=4    xadvance=10   page=0    chnl=0 
char id=75      x=128  y=0    width=11   height=15   xoffset=0    yoffset=4    xadvance=10   page=0    chnl=0 
char id=76      x=139  y=0    width=11   height=15   xoffset=0    yoffset=4    xadvance=10   page=0    chnl=0 
char id=77      x=150  y=0    width=13   height=15   xoffset=0    yoffset=4    xadvance=13   page=0    chnl=0 
char id=78      x=163  y=0    width=10   height=15   xoffset=0    yoffset=4    xadvance=10   page=0    chnl=0 
char id=79      x=173  y=0    width=11   height=15   xoffset=0    yoffset=4    xadvance=10   page=0    chnl=0 
char id=80      x=184  y=0    width=9    height=15   xoffset=0    yoffset=4    xadvance=10   page=0    chnl=0 
char id=81      x=193  y=0    width=12   height=15   xoffset=0    yoffset=4    xadvance=11   page=0    chnl=0 
char id=82      x=205  y=0    width=10   height=15   xoffset=0    yoffset=4    xadvance=10   page=0    chnl=0 
char id=83      x=215  y=0    width=11   height=15   xoffset=0    yoffset=4    xadvance=10   page=0    chnl=0 
char id=84      x=226  y=0    width=10   height=15   xoffset=0    yoffset=4    xadvance=10   page=0    chnl=0 
char id=85      x=16   y=0    width=10   height=16   xoffset=0    yoffset=3    xadvance=10   page=0    chnl=0 
char id=86      x=236  y=0    width=13   height=15   xoffset=0    yoffset=4    xadvance=11   page=0    chnl=0 
char id=87      x=26   y=0    width=14   height=16   xoffset=0    yoffset=3    xadvance=13   page=0    chnl=0 
char id=88      x=249  y=0    width=12   height=15   xoffset=0    yoffset=4    xadvance=10   page=0    chnl=0 
char id=89      x=261  y=0    width=11   height=15   xoffset=0    yoffset=4    xadvance=10   page=0    chnl=0 
char id=90      x=272  y=0    width=12   height=15   xoffset=0    yoffset=4    xadvance=10   page=0    chnl=0 
char id=91      x=8    y=18   width=6    height=15   xoffset=0    yoffset=4    xadvance=5    page=0    chnl=0 
char id=92      x=61   y=18   width=12   height=15   xoffset=0    yoffset=4    xadvance=10   page=0    chnl=0 
char id=93      x=14   y=18   width=6    height=15   xoffset=0    yoffset=4    xadvance=5    page=0    chnl=0 
char id=94      x=319  y=18   width=8    height=6    xoffset=0    yoffset=4    xadvance=6    page=0    chnl=0 
char id=95      x=360  y=18   width=10   height=4    xoffset=-1   yoffset=15   xadvance=8    page=0    chnl=0 
char id=96      x=313  y=18   width=6    height=6    xoffset=0    yoffset=4    xadvance=5    page=0    chnl=0 
char id=97      x=131  y=18   width=9    height=12   xoffset=0    yoffset=7    xadvance=8    page=0    chnl=0 
char id=98      x=284  y=0    width=9    height=15   xoffset=0    yoffset=4    xadvance=8    page=0    chnl=0 
char id=99      x=140  y=18   width=9    height=12   xoffset=0    yoffset=7    xadvance=8    page=0    chnl=0 
char id=100     x=293  y=0    width=9    height=15   xoffset=0    yoffset=4    xadvance=8    page=0    chnl=0 
char id=101     x=149  y=18   width=9    height=12   xoffset=0    yoffset=7    xadvance=8    page=0    chnl=0 
char id=102     x=302  y=0    width=7    height=15   xoffset=0    yoffset=4    xadvance=6    page=0    chnl=0 
char id=103     x=309  y=0    width=9    height=15   xoffset=0    yoffset=7    xadvance=8    page=0    chnl=0 
char id=104     x=318  y=0    width=9    height=15   xoffset=0    yoffset=4    xadvance=8    page=0    chnl=0 
char id=105     x=327  y=0    width=6    height=15   xoffset=0    yoffset=4    xadvance=5    page=0    chnl=0 
char id=106     x=0    y=0    width=6    height=18   xoffset=-2   yoffset=4    xadvance=3    page=0    chnl=0 
char id=107     x=333  y=0    width=9    height=15   xoffset=0    yoffset=4    xadvance=8    page=0    chnl=0 
char id=108     x=342  y=0    width=7    height=15   xoffset=0    yoffset=4    xadvance=6    page=0    chnl=0 
char id=109     x=158  y=18   width=12   height=12   xoffset=0    yoffset=7    xadvance=10   page=0    chnl=0 
char id=110     x=170  y=18   width=11   height=12   xoffset=0    yoffset=7    xadvance=10   page=0    chnl=0 
char id=111     x=181  y=18   width=9    height=12   xoffset=0    yoffset=7    xadvance=8    page=0    chnl=0 
char id=112     x=349  y=0    width=9    height=15   xoffset=0    yoffset=7    xadvance=8    page=0    chnl=0 
char id=113     x=358  y=0    width=9    height=15   xoffset=0    yoffset=7    xadvance=8    page=0    chnl=0 
char id=114     x=190  y=18   width=7    height=12   xoffset=0    yoffset=7    xadvance=6    page=0    chnl=0 
char id=115     x=197  y=18   width=9    height=12   xoffset=0    yoffset=7    xadvance=8    page=0    chnl=0 
char id=116     x=367  y=0    width=7    height=15   xoffset=0    yoffset=4    xadvance=6    page=0    chnl=0 
char id=117     x=244  y=18   width=11   height=10   xoffset=0    yoffset=9    xadvance=10   page=0    chnl=0 
char id=118     x=206  y=18   width=12   height=12   xoffset=0    yoffset=7    xadvance=10   page=0    chnl=0 
char id=119     x=255  y=18   width=12   height=10   xoffset=0    yoffset=9    xadvance=10   page=0    chnl=0 
char id=120     x=218  y=18   width=10   height=12   xoffset=0    yoffset=7    xadvance=8    page=0    chnl=0 
char id=121     x=374  y=0    width=9    height=15   xoffset=0    yoffset=7    xadvance=8    page=0    chnl=0 
char id=122     x=228  y=18   width=10   height=12   xoffset=0    yoffset=7    xadvance=8    page=0    chnl=0 
char id=123     x=20   y=18   width=7    height=15   xoffset=0    yoffset=4    xadvance=6    page=0    chnl=0 
char id=124     x=34   y=18   width=4    height=15   xoffset=0    yoffset=4    xadvance=3    page=0    chnl=0 
char id=125     x=27   y=18   width=7    height=15   xoffset=0    yoffset=4    xadvance=6    page=0    chnl=0 
char id=126     x=338  y=18   width=9    height=5    xoffset=0    yoffset=6    xadvance=8    page=0    chnl=0 
kernings count=366
kerning first=116 second=113 amount=-1
kerning first=110 second=116 amount=-1
kerning first=122 second=110 amount=-1
kerning first=105 second=115 amount=-2
kerning first=84 second=81 amount=-1
kerning first=99 second=118 amount=-1
kerning first=67 second=86 amount=-1
kerning first=101 second=110 amount=-1
kerning first=102 second=106 amount=-1
kerning first=84 second=115 amount=-3
kerning first=108 second=103 amount=-2
kerning first=70 second=74 amount=-5
kerning first=73 second=117 amount=-1
kerning first=114 second=100 amount=-1
kerning first=119 second=46 amount=-1
kerning first=67 second=65 amount=-1
kerning first=70 second=108 amount=-2
kerning first=76 second=105 amount=-2
kerning first=58 second=59 amount=-2
kerning first=108 second=116 amount=-3
kerning first=102 second=119 amount=-2
kerning first=114 second=113 amount=-1
kerning first=32 second=67 amount=-1
kerning first=67 second=44 amount=-1
kerning first=55 second=50 amount=-1
kerning first=70 second=87 amount=-1
kerning first=50 second=49 amount=-1
kerning first=76 second=84 amount=-3
kerning first=89 second=74 amount=-1
kerning first=99 second=110 amount=-2
kerning first=46 second=44 amount=-2
kerning first=68 second=74 amount=-1
kerning first=70 second=121 amount=-3
kerning first=71 second=117 amount=-1
kerning first=70 second=66 amount=-1
kerning first=114 second=58 amount=-2
kerning first=86 second=99 amount=-1
kerning first=118 second=97 amount=-1
kerning first=76 second=97 amount=-1
kerning first=86 second=44 amount=-1
kerning first=45 second=116 amount=-1
kerning first=111 second=117 amount=-1
kerning first=118 second=110 amount=-1
kerning first=57 second=55 amount=-1
kerning first=70 second=45 amount=-2
kerning first=101 second=115 amount=-1
kerning first=102 second=111 amount=-2
kerning first=90 second=117 amount=-3
kerning first=108 second=108 amount=-2
kerning first=48 second=49 amount=-1
kerning first=36 second=55 amount=-2
kerning first=97 second=110 amount=-1
kerning first=84 second=65 amount=-1
kerning first=105 second=99 amount=-1
kerning first=66 second=74 amount=-1
kerning first=81 second=111 amount=-1
kerning first=115 second=46 amount=-1
kerning first=89 second=100 amount=-1
kerning first=116 second=97 amount=-1
kerning first=84 second=99 amount=-2
kerning first=70 second=58 amount=-3
kerning first=45 second=74 amount=-5
kerning first=84 second=44 amount=-2
kerning first=108 second=121 amount=-3
kerning first=76 second=89 amount=-1
kerning first=55 second=55 amount=-2
kerning first=104 second=116 amount=-2
kerning first=88 second=117 amount=-2
kerning first=67 second=83 amount=-1
kerning first=46 second=49 amount=-1
kerning first=83 second=116 amount=-1
kerning first=102 second=103 amount=-1
kerning first=69 second=75 amount=-1
kerning first=108 second=100 amount=-2
kerning first=114 second=97 amount=-2
kerning first=67 second=117 amount=-1
kerning first=70 second=105 amount=-1
kerning first=102 second=116 amount=-2
kerning first=53 second=55 amount=-3
kerning first=66 second=45 amount=-1
kerning first=108 second=113 amount=-2
kerning first=86 second=117 amount=-2
kerning first=44 second=49 amount=-2
kerning first=99 second=107 amount=-2
kerning first=90 second=101 amount=-2
kerning first=66 second=58 amount=-1
kerning first=70 second=97 amount=-4
kerning first=105 second=117 amount=-1
kerning first=51 second=55 amount=-1
kerning first=113 second=106 amount=1
kerning first=108 second=105 amount=-2
kerning first=68 second=84 amount=-1
kerning first=81 second=74 amount=-1
kerning first=84 second=117 amount=-4
kerning first=120 second=99 amount=-1
kerning first=36 second=52 amount=-1
kerning first=66 second=71 amount=-1
kerning first=89 second=97 amount=-1
kerning first=114 second=115 amount=-1
kerning first=108 second=118 amount=-2
kerning first=102 second=121 amount=-2
kerning first=32 second=69 amount=-1
kerning first=76 second=86 amount=-2
kerning first=49 second=55 amount=-1
kerning first=98 second=116 amount=-1
kerning first=50 second=51 amount=-2
kerning first=66 second=84 amount=-2
kerning first=105 second=109 amount=-1
kerning first=82 second=117 amount=-2
kerning first=102 second=100 amount=-2
kerning first=108 second=97 amount=-2
kerning first=110 second=110 amount=-1
kerning first=118 second=44 amount=-1
kerning first=76 second=65 amount=-1
kerning first=45 second=84 amount=-2
kerning first=86 second=101 amount=-1
kerning first=102 second=45 amount=-2
kerning first=67 second=59 amount=-1
kerning first=86 second=46 amount=-1
kerning first=70 second=47 amount=-5
kerning first=101 second=117 amount=-1
kerning first=108 second=110 amount=-2
kerning first=102 second=113 amount=-2
kerning first=53 second=52 amount=-1
kerning first=114 second=107 amount=-1
kerning first=116 second=99 amount=-1
kerning first=36 second=57 amount=-1
kerning first=70 second=81 amount=-1
kerning first=77 second=74 amount=-1
kerning first=80 second=117 amount=-2
kerning first=84 second=67 amount=-1
kerning first=86 second=59 amount=-1
kerning first=86 second=114 amount=-1
kerning first=102 second=58 amount=-2
kerning first=84 second=101 amount=-3
kerning first=120 second=117 amount=-1
kerning first=84 second=46 amount=-3
kerning first=115 second=116 amount=-2
kerning first=45 second=110 amount=-2
kerning first=55 second=57 amount=-1
kerning first=83 second=84 amount=-1
kerning first=66 second=89 amount=-1
kerning first=84 second=80 amount=-1
kerning first=99 second=117 amount=-1
kerning first=114 second=99 amount=-1
kerning first=102 second=105 amount=-1
kerning first=84 second=114 amount=-2
kerning first=78 second=117 amount=-1
kerning first=90 second=111 amount=-2
kerning first=36 second=49 amount=-1
kerning first=45 second=89 amount=-2
kerning first=84 second=59 amount=-3
kerning first=66 second=68 amount=-1
kerning first=81 second=105 amount=-1
kerning first=114 second=44 amount=-2
kerning first=118 second=117 amount=-2
kerning first=113 second=116 amount=-1
kerning first=45 second=68 amount=-2
kerning first=114 second=112 amount=-1
kerning first=102 second=118 amount=-2
kerning first=81 second=84 amount=-2
kerning first=108 second=115 amount=-2
kerning first=97 second=117 amount=-1
kerning first=55 second=49 amount=-2
kerning first=104 second=110 amount=-2
kerning first=75 second=121 amount=-1
kerning first=76 second=117 amount=-3
kerning first=83 second=110 amount=-1
kerning first=102 second=97 amount=-3
kerning first=112 second=44 amount=-2
kerning first=70 second=65 amount=-1
kerning first=67 second=111 amount=-1
kerning first=80 second=101 amount=-1
kerning first=115 second=121 amount=-1
kerning first=81 second=97 amount=-1
kerning first=116 second=117 amount=-1
kerning first=83 second=89 amount=-1
kerning first=75 second=45 amount=-1
kerning first=105 second=119 amount=-1
kerning first=111 second=116 amount=-1
kerning first=70 second=44 amount=-4
kerning first=79 second=84 amount=-1
kerning first=53 second=49 amount=-1
kerning first=102 second=110 amount=-2
kerning first=84 second=119 amount=-3
kerning first=103 second=106 amount=1
kerning first=74 second=117 amount=-1
kerning first=80 second=114 amount=-1
kerning first=66 second=73 amount=-1
kerning first=89 second=44 amount=-1
kerning first=114 second=117 amount=-2
kerning first=81 second=89 amount=-1
kerning first=109 second=116 amount=-1
kerning first=68 second=44 amount=-1
kerning first=90 second=74 amount=-1
kerning first=105 second=111 amount=-1
kerning first=66 second=86 amount=-2
kerning first=118 second=46 amount=-1
kerning first=102 second=102 amount=-1
kerning first=69 second=74 amount=-1
kerning first=71 second=121 amount=-1
kerning first=70 second=70 amount=-1
kerning first=45 second=86 amount=-1
kerning first=72 second=117 amount=-1
kerning first=76 second=67 amount=-1
kerning first=66 second=65 amount=-1
kerning first=80 second=106 amount=-1
kerning first=76 second=101 amount=-2
kerning first=84 second=111 amount=-2
kerning first=112 second=117 amount=-2
kerning first=108 second=112 amount=-2
kerning first=102 second=115 amount=-2
kerning first=66 second=44 amount=-1
kerning first=90 second=121 amount=-1
kerning first=114 second=109 amount=-1
kerning first=98 second=110 amount=-2
kerning first=105 second=103 amount=-2
kerning first=84 second=69 amount=-1
kerning first=66 second=78 amount=-1
kerning first=67 second=74 amount=-1
kerning first=69 second=121 amount=-1
kerning first=70 second=117 amount=-5
kerning first=75 second=118 amount=-1
kerning first=65 second=116 amount=-1
kerning first=79 second=68 amount=-1
kerning first=90 second=45 amount=-2
kerning first=117 second=110 amount=-1
kerning first=83 second=86 amount=-1
kerning first=56 second=55 amount=-1
kerning first=105 second=116 amount=-2
kerning first=86 second=74 amount=-1
kerning first=89 second=117 amount=-2
kerning first=114 second=101 amount=-1
kerning first=114 second=46 amount=-3
kerning first=36 second=51 amount=-1
kerning first=67 second=121 amount=-2
kerning first=65 second=74 amount=-1
kerning first=68 second=117 amount=-1
kerning first=80 second=111 amount=-1
kerning first=67 second=66 amount=-1
kerning first=83 second=65 amount=-1
kerning first=114 second=114 amount=-1
kerning first=102 second=120 amount=-2
kerning first=81 second=86 amount=-1
kerning first=54 second=55 amount=-2
kerning first=103 second=116 amount=-1
kerning first=55 second=51 amount=-2
kerning first=70 second=88 amount=-1
kerning first=71 second=84 amount=-2
kerning first=84 second=74 amount=-3
kerning first=66 second=83 amount=-1
kerning first=45 second=49 amount=-2
kerning first=76 second=119 amount=-2
kerning first=87 second=117 amount=-2
kerning first=102 second=99 amount=-2
kerning first=112 second=46 amount=-2
kerning first=114 second=59 amount=-2
kerning first=45 second=83 amount=-1
kerning first=66 second=117 amount=-1
kerning first=102 second=44 amount=-2
kerning first=115 second=110 amount=-2
kerning first=122 second=116 amount=-1
kerning first=67 second=58 amount=-1
kerning first=70 second=101 amount=-3
kerning first=86 second=45 amount=-1
kerning first=105 second=121 amount=-1
kerning first=106 second=117 amount=-1
kerning first=113 second=110 amount=-1
kerning first=101 second=116 amount=-1
kerning first=102 second=112 amount=-2
kerning first=84 second=121 amount=-2
kerning first=69 second=84 amount=-2
kerning first=70 second=80 amount=-1
kerning first=99 second=103 amount=-1
kerning first=84 second=66 amount=-1
kerning first=105 second=100 amount=-1
kerning first=69 second=118 amount=-2
kerning first=86 second=58 amount=-1
kerning first=70 second=114 amount=-3
kerning first=76 second=111 amount=-1
kerning first=71 second=110 amount=-2
kerning first=90 second=97 amount=-2
kerning first=70 second=59 amount=-3
kerning first=89 second=46 amount=-1
kerning first=67 second=105 amount=-1
kerning first=84 second=45 amount=-3
kerning first=69 second=97 amount=-1
kerning first=105 second=113 amount=-1
kerning first=84 second=79 amount=-1
kerning first=50 second=55 amount=-1
kerning first=99 second=116 amount=-1
kerning first=111 second=110 amount=-1
kerning first=67 second=84 amount=-1
kerning first=80 second=74 amount=-6
kerning first=83 second=117 amount=-2
kerning first=108 second=101 amount=-1
kerning first=76 second=69 amount=-1
kerning first=119 second=44 amount=-1
kerning first=84 second=58 amount=-2
kerning first=69 second=110 amount=-1
kerning first=45 second=122 amount=-2
kerning first=107 second=118 amount=-1
kerning first=114 second=111 amount=-1
kerning first=102 second=117 amount=-3
kerning first=109 second=110 amount=-1
kerning first=54 second=52 amount=-1
kerning first=48 second=55 amount=-1
kerning first=69 second=89 amount=-2
kerning first=97 second=116 amount=-2
kerning first=65 second=84 amount=-1
kerning first=80 second=121 amount=-1
kerning first=81 second=117 amount=-2
kerning first=105 second=105 amount=-1
kerning first=116 second=103 amount=-1
kerning first=84 second=105 amount=-1
kerning first=86 second=97 amount=-2
kerning first=116 second=116 amount=-1
kerning first=99 second=121 amount=-2
kerning first=69 second=47 amount=-1
kerning first=100 second=117 amount=-1
kerning first=105 second=118 amount=-1
kerning first=67 second=89 amount=-2
kerning first=102 second=109 amount=-2
kerning first=114 second=103 amount=-1
kerning first=36 second=53 amount=-1
kerning first=79 second=117 amount=-1
kerning first=105 second=97 amount=-1
kerning first=109 second=47 amount=-1
kerning first=66 second=72 amount=-1
kerning first=70 second=111 amount=-4
kerning first=84 second=97 amount=-3
kerning first=119 second=117 amount=-1
kerning first=108 second=119 amount=-1
kerning first=102 second=122 amount=-2
kerning first=114 second=116 amount=-1
kerning first=54 second=57 amount=-1
kerning first=116 second=108 amount=-1
kerning first=55 second=53 amount=-1
kerning first=71 second=86 amount=-1
kerning first=50 second=52 amount=-1
kerning first=56 second=49 amount=-1
kerning first=99 second=113 amount=-1
kerning first=105 second=110 amount=-2
kerning first=76 second=121 amount=-3
kerning first=102 second=101 amount=-2
kerning first=77 second=117 amount=-1
kerning first=108 second=98 amount=-1
kerning first=70 second=69 amount=-1
kerning first=102 second=46 amount=-2
kerning first=81 second=101 amount=-1
kerning first=76 second=45 amount=-2
kerning first=107 second=115 amount=-2
kerning first=114 second=108 amount=-1
kerning first=102 second=114 amount=-2
kerning first=108 second=111 amount=-1
kerning first=122 second=97 amount=-2
kerning first=54 second=49 amount=-1
kerning first=69 second=86 amount=-1
kerning first=76 second=79 amount=-1
kerning first=86 second=115 amount=-1
kerning first=66 second=77 amount=-1
kerning first=75 second=117 amount=-1
kerning first=102 second=59 amount=-1
kerning first=116 second=45 amount=-1
kerning first=80 second=97 amount=-2
kerning first=115 second=117 amount=-1
